^C:\USERS\TYLER H\DOCUMENTS\GL-LITE\GL_LITE\GLLITE.CPP|C:\USERS\TYLER H\DOCUMENTS\GL-LITE\GL_LITE\MAIN.CPP
C:\USERS\TYLER H\DOCUMENTS\GL-LITE\GL_LITE\RELEASE\VC140.PDB
C:\USERS\TYLER H\DOCUMENTS\GL-LITE\GL_LITE\RELEASE\MAIN.OBJ
C:\USERS\TYLER H\DOCUMENTS\GL-LITE\GL_LITE\RELEASE\GLLITE.OBJ
^C:\USERS\TYLER H\DOCUMENTS\GL-LITE\GL_LITE\GLLITE.CPP
C:\USERS\TYLER H\DOCUMENTS\GL-LITE\GL_LITE\RELEASE\VC140.PDB
^C:\USERS\TYLER H\DOCUMENTS\GL-LITE\GL_LITE\MAIN.CPP
C:\USERS\TYLER H\DOCUMENTS\GL-LITE\GL_LITE\RELEASE\VC140.PDB
