^C:\USERS\TYLER H\DOCUMENTS\GL-LITE\GL_LITE\MAIN.CPP
/c /I"C:\USERS\TYLER H\DOCUMENTS\GL-LITE\INCLUDE" /ZI /nologo /W3 /WX- /Od /Oy- /D WIN32 /D _DEBUG /D _CONSOLE /D _UNICODE /D UNICODE /Gm /EHsc /RTC1 /MDd /GS /fp:precise /Zc:wchar_t /Zc:forScope /Zc:inline /Fo"DEBUG\\" /Fd"DEBUG\VC140.PDB" /Gd /TP /analyze- C:\USERS\TYLER H\DOCUMENTS\GL-LITE\GL_LITE\MAIN.CPP
^C:\USERS\TYLER H\DOCUMENTS\GL-LITE\GL_LITE\GLLITE.CPP
/c /I"C:\USERS\TYLER H\DOCUMENTS\GL-LITE\INCLUDE" /ZI /nologo /W3 /WX- /Od /Oy- /D WIN32 /D _DEBUG /D _CONSOLE /D _UNICODE /D UNICODE /Gm /EHsc /RTC1 /MDd /GS /fp:precise /Zc:wchar_t /Zc:forScope /Zc:inline /Fo"DEBUG\\" /Fd"DEBUG\VC140.PDB" /Gd /TP /analyze- C:\USERS\TYLER H\DOCUMENTS\GL-LITE\GL_LITE\GLLITE.CPP
